v 20191008 2
V 700 600 300 3 0 0 0 -1 -1 0 -1 -1 -1 -1 -1
P 300 1200 300 900 1 0 0
{
T 1700 1300 5 10 0 0 0 0 1
pintype=pwr
T 200 1000 9 10 1 1 0 6 1
pinlabel=L1
T 1700 1100 5 10 0 0 0 0 1
pinnumber=1
T 1700 1500 5 10 0 0 0 0 1
pinseq=1
}
P 700 1200 700 900 1 0 0
{
T 1700 700 5 10 0 0 0 0 1
pintype=pwr
T 600 1000 9 10 1 1 0 6 1
pinlabel=L2
T 1700 500 5 10 0 0 0 0 1
pinnumber=2
T 1700 900 5 10 0 0 0 0 1
pinseq=2
}
T 700 200 8 10 1 1 0 5 1
value=?HP
T -200 -300 8 10 0 0 0 0 1
device=motor-3p
T -200 -500 8 10 0 0 0 0 1
description=3 phase ac motor
T -200 -700 8 10 0 0 0 0 1
symversion=1.0
T -200 -900 8 10 0 0 0 0 1
author=Raphael Gosselin raphgoss69ATgmail.com
T -200 -1100 8 10 0 0 0 0 1
dist-license=GPLv3
P 1100 1200 1100 900 1 0 0
{
T 1700 100 5 10 0 0 0 0 1
pintype=pwr
T 1000 1000 9 10 1 1 0 6 1
pinlabel=L3
T 1700 -100 5 10 0 0 0 0 1
pinnumber=3
T 1700 300 5 10 0 0 0 0 1
pinseq=3
}
L 400 600 300 900 3 0 0 0 -1 -1
L 1000 600 1100 900 3 0 0 0 -1 -1
T 700 600 8 10 1 1 0 4 1
refdes=M?
T -200 -1300 8 10 0 0 0 0 1
numslots=0
T -200 -1500 8 10 0 0 0 0 1
footprint=none
