v 20191008 2
A 750 900 50 180 180 3 0 1 0 -1 -1
A 650 900 50 180 180 3 0 1 0 -1 -1
A 550 900 50 180 180 3 0 1 0 -1 -1
A 450 900 50 180 180 3 0 1 0 -1 -1
A 300 750 50 270 180 3 0 1 0 -1 -1
A 300 650 50 270 180 3 0 1 0 -1 -1
A 300 550 50 270 180 3 0 1 0 -1 -1
A 300 450 50 270 180 3 0 1 0 -1 -1
A 450 300 50 0 180 3 0 1 0 -1 -1
A 550 300 50 0 180 3 0 1 0 -1 -1
A 650 300 50 0 180 3 0 1 0 -1 -1
A 750 300 50 0 180 3 0 1 0 -1 -1
P 400 1200 400 900 1 0 0
{
T 2000 1400 5 10 0 0 0 0 1
pinseq=2
T 2000 1200 5 10 0 0 0 0 1
pintype=pwr
T 2000 1000 5 10 0 1 0 0 1
pinnumber=2
T 2000 800 5 10 0 1 0 0 1
pinlabel=unknown
}
P 800 1200 800 900 1 0 0
{
T 2000 600 5 10 0 0 0 0 1
pinseq=1
T 2000 400 5 10 0 0 0 0 1
pintype=pwr
T 2000 200 5 10 0 1 0 0 1
pinnumber=1
T 2000 0 5 10 0 1 0 0 1
pinlabel=unknown
}
P 0 800 300 800 1 0 0
{
T 2000 2200 5 10 0 0 0 0 1
pinseq=3
T 2000 2000 5 10 0 0 0 0 1
pintype=pwr
T 2000 1800 5 10 0 1 0 0 1
pinnumber=3
T 2000 1600 5 10 0 1 0 0 1
pinlabel=unknown
}
P 0 400 300 400 1 0 0
{
T 2000 3000 5 10 0 0 0 0 1
pinseq=4
T 2000 2800 5 10 0 0 0 0 1
pintype=pwr
T 2000 2600 5 10 0 1 0 0 1
pinnumber=4
T 2000 2400 5 10 0 1 0 0 1
pinlabel=unknown
}
P 400 0 400 300 1 0 0
{
T 2000 3800 5 10 0 0 0 0 1
pinseq=5
T 2000 3600 5 10 0 0 0 0 1
pintype=pwr
T 2000 3400 5 10 0 1 0 0 1
pinnumber=5
T 2000 3200 5 10 0 1 0 0 1
pinlabel=unknown
}
P 800 0 800 300 1 0 0
{
T 2000 4600 5 10 0 0 0 0 1
pinseq=6
T 2000 4400 5 10 0 0 0 0 1
pintype=pwr
T 2000 4200 5 10 0 1 0 0 1
pinnumber=6
T 2000 4000 5 10 0 1 0 0 1
pinlabel=unknown
}
T 4000 0 8 10 0 0 0 0 1
device=motor-1p
T 4000 200 8 10 0 0 0 0 1
description=single phase dual voltage ac motor
T 4000 400 8 10 0 0 0 0 1
author=Raphael Gosselin raphgoss69ATgmail.com
T 4000 600 8 10 0 0 0 0 1
numslots=0
T 4000 800 8 10 0 0 0 0 1
footprint=none
T 4000 1000 8 10 0 0 0 0 1
documentation=none
T 4000 1200 8 10 0 0 0 0 1
comment=2 run + 1 start windings
T 4000 1400 8 10 0 0 0 0 1
symversion=1.0
T 4000 1600 8 10 0 0 0 0 1
dist-license=GPLv3
T 4000 1800 8 10 0 0 0 0 1
use-license=unlimited
T 1000 600 8 10 1 1 0 1 1
value=?HP
T 500 600 8 10 1 1 0 1 1
refdes=M?
