v 20191008 2
L 500 800 400 300 3 0 0 0 -1 -1
P 400 1000 400 700 1 0 0
{
T -2000 900 5 10 0 0 0 0 1
pintype=pas
T -2000 500 5 10 0 1 0 0 1
pinlabel=unknown
T -2000 700 5 10 0 0 0 0 1
pinnumber=1
T -2000 1100 5 10 0 0 0 0 1
pinseq=1
}
P 400 0 400 300 1 0 0
{
T 900 900 5 10 0 0 0 0 1
pintype=pas
T 900 500 5 10 0 1 0 0 1
pinlabel=unknown
T 900 700 5 10 0 0 0 0 1
pinnumber=4
T 900 1100 5 10 0 0 0 0 1
pinseq=4
}
L 450 500 -200 500 3 1 0 2 50 50
L -150 450 -200 450 3 0 0 0 -1 -1
L -200 450 -200 550 3 0 0 0 -1 -1
L -200 550 -150 550 3 0 0 0 -1 -1
T -2000 2500 8 10 0 0 0 0 1
device=pushbutton-2p-no-nc
T -2000 2300 8 10 0 0 0 0 1
description=2 pole push button no/nc
T -2000 2100 8 10 0 0 0 0 1
symversion=1.0
T -2000 1900 8 10 0 0 0 0 1
author=Raphael Gosselin raphgoss69ATgmail.com
T -2000 1700 8 10 0 0 0 0 1
dist-license=GPLv3
L 400 700 500 700 3 0 0 0 -1 -1
P 0 1000 0 700 1 0 0
{
T -2000 100 5 10 0 0 0 0 1
pintype=pas
T -2000 -300 5 10 0 1 0 0 1
pinlabel=unknown
T -2000 -100 5 10 0 0 0 0 1
pinnumber=2
T -2000 300 5 10 0 0 0 0 1
pinseq=2
}
P 0 0 0 300 1 0 0
{
T 900 100 5 10 0 0 0 0 1
pintype=pas
T 900 -300 5 10 0 1 0 0 1
pinlabel=unknown
T 900 -100 5 10 0 0 0 0 1
pinnumber=3
T 900 300 5 10 0 0 0 0 1
pinseq=3
}
L 0 300 -100 700 3 0 0 0 -1 -1
T -400 500 8 10 1 1 0 7 1
refdes=PB?
T -2000 1500 8 10 0 0 0 0 1
numslots=0
T -2000 1300 8 10 0 0 0 0 1
footprint=none
