v 20191008 2
L 700 500 300 600 3 0 0 0 -1 -1
P 0 500 300 500 1 0 0
{
T -1600 700 5 10 0 0 0 0 1
pintype=pas
T -1600 300 5 10 0 1 0 0 1
pinlabel=unknown
T -1600 500 5 10 0 0 0 0 1
pinnumber=1
T -1600 900 5 10 0 0 0 0 1
pinseq=1
}
P 1000 500 700 500 1 0 0
{
T 1500 700 5 10 0 0 0 0 1
pintype=pas
T 1500 300 5 10 0 1 0 0 1
pinlabel=unknown
T 1500 500 5 10 0 0 0 0 1
pinnumber=4
T 1500 900 5 10 0 0 0 0 1
pinseq=4
}
L 500 50 500 700 3 1 0 2 50 50
L 450 650 450 700 3 0 0 0 -1 -1
L 450 700 550 700 3 0 0 0 -1 -1
L 550 700 550 650 3 0 0 0 -1 -1
T -1600 2300 8 10 0 0 0 0 1
device=pushbutton-2p-no-nc
T -1600 2100 8 10 0 0 0 0 1
description=2 pole push button no/nc
T -1600 1900 8 10 0 0 0 0 1
symversion=1.0
T -1600 1700 8 10 0 0 0 0 1
author=Raphael Gosselin raphgoss69ATgmail.com
T -1600 1500 8 10 0 0 0 0 1
dist-license=GPLv3
T 500 800 8 10 1 1 0 3 1
refdes=PB?
P 0 100 300 100 1 0 0
{
T -1600 -100 5 10 0 0 0 0 1
pintype=pas
T -1600 -500 5 10 0 1 0 0 1
pinlabel=unknown
T -1600 -300 5 10 0 0 0 0 1
pinnumber=2
T -1600 100 5 10 0 0 0 0 1
pinseq=2
}
P 1000 100 700 100 1 0 0
{
T 1500 -100 5 10 0 0 0 0 1
pintype=pas
T 1500 -500 5 10 0 1 0 0 1
pinlabel=unknown
T 1500 -300 5 10 0 0 0 0 1
pinnumber=3
T 1500 100 5 10 0 0 0 0 1
pinseq=3
}
L 700 100 200 0 3 0 0 0 -1 -1
L 300 0 300 100 3 0 0 0 -1 -1
T -1600 1300 8 10 0 0 0 0 1
numslots=0
T -1600 1100 8 10 0 0 0 0 1
footprint=none
