v 20191008 2
T -1900 1100 8 10 0 0 0 0 1
device=selector-2p-3pos-no-nm
T -1900 1300 8 10 0 0 0 0 1
description=selector switch 3 positions 2 poles normally open neutral middle
T -1900 1500 8 10 0 0 0 0 1
author=Raphael Gosselin raphgoss69ATgmail.com
T -1900 1700 8 10 0 0 0 0 1
numslots=0
T -1900 1900 8 10 0 0 0 0 1
footprint=none
T -1900 2100 8 10 0 0 0 0 1
documentation=none
T -1900 2300 8 10 0 0 0 0 1
comment=none
T -1900 2500 8 10 0 0 0 0 1
symversion=1.0
T -1900 2700 8 10 0 0 0 0 1
dist-license=GPLv3
T -1900 2900 8 10 0 0 0 0 1
use-license=unlimited
T -1900 3100 8 10 0 1 0 0 1
value=value
T 500 700 8 10 1 1 0 3 1
refdes=SL?
P 0 0 300 0 1 0 0
{
T -1900 600 5 10 0 0 0 0 1
pinseq=1
T -1900 400 5 10 0 0 0 0 1
pintype=pas
T -1900 200 5 10 0 1 0 0 1
pinnumber=1
T -1900 0 5 10 0 1 0 0 1
pinlabel=unknown
}
L 300 100 700 0 3 0 1 0 -1 -1
P 1000 0 700 0 1 0 0
{
T 1300 600 5 10 0 0 0 0 1
pinseq=2
T 1300 400 5 10 0 0 0 0 1
pintype=pas
T 1300 200 5 10 0 1 0 0 1
pinnumber=2
T 1300 0 5 10 0 1 0 0 1
pinlabel=unknown
}
L 500 -350 500 200 3 1 1 2 50 50
L 500 200 450 250 3 0 1 0 -1 -1
L 450 250 500 300 3 0 1 0 -1 -1
L 500 300 500 350 3 0 1 0 -1 -1
L 400 400 600 400 3 0 1 0 -1 -1
L 400 400 600 300 3 1 1 2 50 50
L 400 400 600 500 3 1 1 2 50 50
L 500 550 500 450 3 1 1 2 50 50
L 450 550 550 550 3 0 1 0 -1 -1
L 550 550 550 600 3 0 1 0 -1 -1
L 450 550 450 500 3 0 1 0 -1 -1
P 0 -400 300 -400 1 0 0
{
T -1900 -300 5 10 0 0 0 0 1
pinseq=3
T -1900 -500 5 10 0 0 0 0 1
pintype=pas
T -1900 -700 5 10 0 1 0 0 1
pinnumber=3
T -1900 -900 5 10 0 1 0 0 1
pinlabel=unknown
}
P 1000 -400 700 -400 1 0 0
{
T 1300 -300 5 10 0 0 0 0 1
pinseq=4
T 1300 -500 5 10 0 0 0 0 1
pintype=pas
T 1300 -700 5 10 0 1 0 0 1
pinnumber=4
T 1300 -900 5 10 0 1 0 0 1
pinlabel=unknown
}
L 700 -400 300 -300 3 0 1 0 -1 -1
