v 20191008 2
T -300 1500 8 10 0 0 0 0 1
device=none
T -300 1300 8 10 0 0 0 0 1
description=2 pole magnetic modifier
T -300 1100 8 10 0 0 0 0 1
symversion=1.0
T -300 900 8 10 0 0 0 0 1
author=Raphael Gosselin raphgoss69ATgmail.com
T -300 700 8 10 0 0 0 0 1
dist-license=GPLv3
T -300 500 8 10 0 0 0 0 1
graphical=1
L 200 25 250 75 3 0 0 0 -1 -1
L 200 25 150 75 3 0 0 0 -1 -1
L 300 125 100 125 3 0 0 0 -1 -1
L 300 150 300 100 3 0 0 0 -1 -1
L 100 150 100 100 3 0 0 0 -1 -1
L 50 200 750 200 3 0 0 0 -1 -1
L 600 25 650 75 3 0 0 0 -1 -1
L 600 25 550 75 3 0 0 0 -1 -1
L 700 125 500 125 3 0 0 0 -1 -1
L 700 150 700 100 3 0 0 0 -1 -1
L 500 150 500 100 3 0 0 0 -1 -1
L 50 0 750 0 3 0 0 0 -1 -1
L 750 0 750 200 3 0 0 0 -1 -1
L 50 0 50 200 3 0 0 0 -1 -1
