v 20191008 2
T -200 1500 8 10 0 0 0 0 1
device=none
T -200 1300 8 10 0 0 0 0 1
description=2 pole thermal modifier
T -200 1100 8 10 0 0 0 0 1
symversion=1.0
T -200 900 8 10 0 0 0 0 1
author=Raphael Gosselin raphgoss69ATgmail.com
T -200 700 8 10 0 0 0 0 1
dist-license=GPLv3
L 200 150 300 150 3 0 0 0 -1 -1
L 200 50 300 50 3 0 0 0 -1 -1
L 50 0 50 200 3 0 0 0 -1 -1
L 50 200 750 200 3 0 0 0 -1 -1
L 200 150 200 200 3 0 0 0 -1 -1
L 200 50 200 0 3 0 0 0 -1 -1
L 750 0 50 0 3 0 0 0 -1 -1
T -200 500 8 10 0 0 0 0 1
graphical=1
L 300 50 300 150 3 0 0 0 -1 -1
L 600 150 700 150 3 0 0 0 -1 -1
L 600 50 700 50 3 0 0 0 -1 -1
L 750 200 750 0 3 0 0 0 -1 -1
L 600 150 600 200 3 0 0 0 -1 -1
L 600 50 600 0 3 0 0 0 -1 -1
L 700 50 700 150 3 0 0 0 -1 -1
