v 20191008 2
T -400 2400 8 10 0 0 0 0 1
device=none
T -400 2200 8 10 0 0 0 0 1
description=3 pole thermal modifier
T -400 2000 8 10 0 0 0 0 1
symversion=1.0
T -400 1800 8 10 0 0 0 0 1
author=Raphael Gosselin raphgoss69ATgmail.com
T -400 1600 8 10 0 0 0 0 1
dist-license=GPLv3
L 150 1000 150 900 3 0 0 0 -1 -1
L 50 1000 50 900 3 0 0 0 -1 -1
L 0 1150 200 1150 3 0 0 0 -1 -1
L 150 1000 200 1000 3 0 0 0 -1 -1
L 50 1000 0 1000 3 0 0 0 -1 -1
T -400 1400 8 10 0 0 0 0 1
graphical=1
L 50 900 150 900 3 0 0 0 -1 -1
L 150 600 150 500 3 0 0 0 -1 -1
L 50 600 50 500 3 0 0 0 -1 -1
L 200 1150 200 50 3 0 0 0 -1 -1
L 150 600 200 600 3 0 0 0 -1 -1
L 50 600 0 600 3 0 0 0 -1 -1
L 0 50 0 1150 3 0 0 0 -1 -1
L 50 500 150 500 3 0 0 0 -1 -1
L 150 200 150 100 3 0 0 0 -1 -1
L 50 200 50 100 3 0 0 0 -1 -1
L 200 50 0 50 3 0 0 0 -1 -1
L 150 200 200 200 3 0 0 0 -1 -1
L 50 200 0 200 3 0 0 0 -1 -1
L 50 100 150 100 3 0 0 0 -1 -1
