v 20191008 2
T 1000 100 9 10 1 0 90 1 1
LOGO! 8 12/24RCE
T 1000 4200 9 10 1 0 90 7 1
6ED1052-1MD08-0BA0
P 0 4200 300 4200 1 0 0
{
T 6200 6400 5 10 0 0 0 6 1
pintype=pwr
T 400 4200 9 10 1 1 0 1 1
pinlabel=L+
T 6200 6200 5 10 0 0 0 6 1
pinnumber=1
T 6200 6600 5 10 0 0 0 6 1
pinseq=1
}
P 0 3800 300 3800 1 0 0
{
T 6200 5800 5 10 0 0 0 6 1
pintype=pwr
T 400 3800 9 10 1 1 0 1 1
pinlabel=M
T 6200 5600 5 10 0 0 0 6 1
pinnumber=2
T 6200 6000 5 10 0 0 0 6 1
pinseq=2
}
P 0 3400 300 3400 1 0 0
{
T 6200 5000 5 10 0 0 0 6 1
pintype=pwr
T 6200 5200 5 10 0 0 0 6 1
pinlabel=earth
T 6200 4800 5 10 0 0 0 6 1
pinnumber=3
T 6200 5400 5 10 0 0 0 6 1
pinseq=3
}
L 400 3450 600 3450 3 0 0 0 -1 -1
L 450 3400 550 3400 3 0 0 0 -1 -1
L 475 3350 525 3350 3 0 0 0 -1 -1
L 500 3450 500 3525 3 0 0 0 -1 -1
P 0 3000 300 3000 1 0 0
{
T 6200 4400 5 10 0 0 0 6 1
pintype=in
T 400 3000 9 10 1 1 0 1 1
pinlabel=I1
T 6200 4200 5 10 0 0 0 6 1
pinnumber=4
T 6200 4600 5 10 0 0 0 6 1
pinseq=4
}
P 0 2600 300 2600 1 0 0
{
T 6200 3800 5 10 0 0 0 6 1
pintype=in
T 400 2600 9 10 1 1 0 1 1
pinlabel=I2
T 6200 3600 5 10 0 0 0 6 1
pinnumber=5
T 6200 4000 5 10 0 0 0 6 1
pinseq=5
}
P 0 2200 300 2200 1 0 0
{
T 6200 3200 5 10 0 0 0 6 1
pintype=in
T 400 2200 9 10 1 1 0 1 1
pinlabel=I3
T 6200 3000 5 10 0 0 0 6 1
pinnumber=6
T 6200 3400 5 10 0 0 0 6 1
pinseq=6
}
P 0 1800 300 1800 1 0 0
{
T 6200 2600 5 10 0 0 0 6 1
pintype=in
T 400 1800 9 10 1 1 0 1 1
pinlabel=I4
T 6200 2400 5 10 0 0 0 6 1
pinnumber=7
T 6200 2800 5 10 0 0 0 6 1
pinseq=7
}
P 0 1400 300 1400 1 0 0
{
T 6200 2000 5 10 0 0 0 6 1
pintype=in
T 400 1400 9 10 1 1 0 1 1
pinlabel=I5
T 6200 1800 5 10 0 0 0 6 1
pinnumber=8
T 6200 2200 5 10 0 0 0 6 1
pinseq=8
}
P 0 1000 300 1000 1 0 0
{
T 6200 1400 5 10 0 0 0 6 1
pintype=in
T 400 1000 9 10 1 1 0 1 1
pinlabel=I6
T 6200 1200 5 10 0 0 0 6 1
pinnumber=9
T 6200 1600 5 10 0 0 0 6 1
pinseq=9
}
P 0 600 300 600 1 0 0
{
T 6200 800 5 10 0 0 0 6 1
pintype=in
T 400 600 9 10 1 1 0 1 1
pinlabel=I7
T 6200 600 5 10 0 0 0 6 1
pinnumber=10
T 6200 1000 5 10 0 0 0 6 1
pinseq=10
}
P 0 200 300 200 1 0 0
{
T 6200 200 5 10 0 0 0 6 1
pintype=in
T 400 200 9 10 1 1 0 1 1
pinlabel=I8
T 6200 0 5 10 0 0 0 6 1
pinnumber=11
T 6200 400 5 10 0 0 0 6 1
pinseq=11
}
P 2000 4200 1700 4200 1 0 0
{
T 3200 4400 5 10 0 0 0 0 1
pintype=pas
T 1800 4300 9 10 1 1 0 0 1
pinlabel=1
T 3200 4200 5 10 0 0 0 0 1
pinnumber=12
T 3200 4600 5 10 0 0 0 0 1
pinseq=12
}
P 2000 3800 1700 3800 1 0 0
{
T 3200 3800 5 10 0 0 0 0 1
pintype=pas
T 1800 3900 9 10 1 1 0 0 1
pinlabel=2
T 3200 3600 5 10 0 0 0 0 1
pinnumber=13
T 3200 4000 5 10 0 0 0 0 1
pinseq=13
}
L 1600 3800 1500 4200 3 0 0 0 -1 -1
T 1500 4000 9 10 1 0 0 7 1
Q1
T 1000 4500 8 10 1 1 0 5 1
refdes=U?
L 1600 2600 1500 3000 3 0 0 0 -1 -1
P 2000 3000 1700 3000 1 0 0
{
T 1800 3100 9 10 1 1 0 0 1
pinlabel=1
T 3200 3200 5 10 0 0 0 0 1
pintype=pas
T 3200 3000 5 10 0 0 0 0 1
pinnumber=14
T 3200 3400 5 10 0 0 0 0 1
pinseq=14
}
P 2000 2600 1700 2600 1 0 0
{
T 1800 2700 9 10 1 1 0 0 1
pinlabel=2
T 3200 2600 5 10 0 0 0 0 1
pintype=pas
T 3200 2400 5 10 0 0 0 0 1
pinnumber=15
T 3200 2800 5 10 0 0 0 0 1
pinseq=15
}
T 1500 2800 9 10 1 0 0 7 1
Q2
L 1600 1400 1500 1800 3 0 0 0 -1 -1
P 2000 1800 1700 1800 1 0 0
{
T 1800 1900 9 10 1 1 0 0 1
pinlabel=1
T 3200 2000 5 10 0 0 0 0 1
pintype=pas
T 3200 1800 5 10 0 0 0 0 1
pinnumber=16
T 3200 2200 5 10 0 0 0 0 1
pinseq=16
}
P 2000 1400 1700 1400 1 0 0
{
T 1800 1500 9 10 1 1 0 0 1
pinlabel=2
T 3200 1400 5 10 0 0 0 0 1
pintype=pas
T 3200 1200 5 10 0 0 0 0 1
pinnumber=17
T 3200 1600 5 10 0 0 0 0 1
pinseq=17
}
T 1500 1600 9 10 1 0 0 7 1
Q3
L 1600 200 1500 600 3 0 0 0 -1 -1
P 2000 600 1700 600 1 0 0
{
T 1800 700 9 10 1 1 0 0 1
pinlabel=1
T 3200 800 5 10 0 0 0 0 1
pintype=pas
T 3200 600 5 10 0 0 0 0 1
pinnumber=18
T 3200 1000 5 10 0 0 0 0 1
pinseq=18
}
P 2000 200 1700 200 1 0 0
{
T 1800 300 9 10 1 1 0 0 1
pinlabel=2
T 3200 200 5 10 0 0 0 0 1
pintype=pas
T 3200 0 5 10 0 0 0 0 1
pinnumber=19
T 3200 400 5 10 0 0 0 0 1
pinseq=19
}
T 1500 400 9 10 1 0 0 7 1
Q4
B 300 0 1400 4600 3 0 0 0 -1 -1 0 -1 -1 -1 -1 -1
L 1600 4200 1700 4200 3 0 0 0 -1 -1
L 1700 3800 1600 3800 3 0 0 0 -1 -1
L 1600 200 1700 200 3 0 0 0 -1 -1
L 1700 600 1600 600 3 0 0 0 -1 -1
L 1700 1400 1600 1400 3 0 0 0 -1 -1
L 1700 1800 1600 1800 3 0 0 0 -1 -1
L 1700 2600 1600 2600 3 0 0 0 -1 -1
L 1700 3000 1600 3000 3 0 0 0 -1 -1
T 0 6100 8 10 0 0 0 0 1
device=6ed1052-1md08-0ba0
T 0 5900 8 10 0 0 0 0 1
description=LOGO! 8 12/24RCE
T 0 5700 8 10 0 0 0 0 1
symversion=1.0
T 0 5500 8 10 0 0 0 0 1
author=Raphael Gosselin raphgoss69ATgmail.com
T 0 4900 8 10 0 0 0 0 1
dist-license=GPLv3
T 0 5100 8 10 0 0 0 0 1
footprint=none
T 0 5300 8 10 0 0 0 0 1
numslots=0
