v 20191008 2
P 0 600 300 600 1 0 0
{
T 3500 400 5 10 0 0 0 0 1
pinseq=1
T 3500 200 5 10 0 0 0 0 1
pintype=pwr
T 3500 0 5 10 0 1 0 0 1
pinnumber=1
T 400 600 9 10 1 1 0 1 1
pinlabel=P1
}
P 0 200 300 200 1 0 0
{
T 3500 1000 5 10 0 0 0 0 1
pinseq=2
T 3500 800 5 10 0 0 0 0 1
pintype=pwr
T 3500 600 5 10 0 1 0 0 1
pinnumber=2
T 400 200 9 10 1 1 0 1 1
pinlabel=P2
}
B 300 0 2600 800 3 0 1 0 -1 -1 0 -1 -1 -1 -1 -1
T 2800 300 9 10 1 0 0 6 1
LOGO! TD
T 2800 100 9 10 1 0 0 6 1
6ED1055-4MH00-0BA0
T 5000 0 8 10 0 0 0 0 1
device=6ed1055-4mh00-0ba0
T 5000 200 8 10 0 0 0 0 1
description=LOGO! TD
T 5000 400 8 10 0 0 0 0 1
author=Raphael Gosselin raphgoss69ATgmail.com
T 5000 600 8 10 0 0 0 0 1
numslots=0
T 5000 800 8 10 0 0 0 0 1
footprint=none
T 5000 1000 8 10 0 0 0 0 1
documentation=none
T 5000 1200 8 10 0 0 0 0 1
comment=none
T 5000 1400 8 10 0 0 0 0 1
symversion=1.0
T 5000 1600 8 10 0 0 0 0 1
dist-license=GPLv3
T 5000 1800 8 10 0 0 0 0 1
use-license=unlimited
T 5000 2000 8 10 0 1 0 0 1
value=none
T 1600 700 8 10 1 1 0 5 1
refdes=U?
