v 20191008 2
P 0 100 300 100 1 0 0
{
T -200 -100 5 10 0 0 0 6 1
pintype=pas
T -200 100 5 10 0 0 0 6 1
pinlabel=none
T -200 500 5 10 0 0 0 6 1
pinnumber=1
T -200 300 5 10 0 0 0 6 1
pinseq=1
}
T 500 100 8 10 1 1 0 1 1
value=tag_name
T 1800 500 8 10 0 0 0 0 1
device=none
T 1800 300 8 10 0 0 0 0 1
net=tag:1
T 1800 100 8 10 0 0 0 0 1
description=input/output net tag
T 1800 -100 8 10 0 0 0 0 1
symversion=1.0
T 1800 -300 8 10 0 0 0 0 1
author=Raphael Gosselin raphgoss69ATgmail.com
T 1800 -500 8 10 0 0 0 0 1
dist-license=GPLv3
L 300 100 400 200 3 0 0 0 -1 -1
L 300 100 400 0 3 0 0 0 -1 -1
L 400 200 1600 200 3 0 0 0 -1 -1
L 1600 0 400 0 3 0 0 0 -1 -1
L 1600 200 1700 100 3 0 0 0 -1 -1
L 1700 100 1600 0 3 0 0 0 -1 -1
