v 20191008 2
P 0 100 300 100 1 0 0
{
T 2000 1200 5 10 0 0 0 0 1
pintype=pas
T 2000 1400 5 10 0 0 0 0 1
pinlabel=none
T 2000 1800 5 10 0 0 0 0 1
pinnumber=1
T 2000 1600 5 10 0 0 0 0 1
pinseq=1
}
T 400 100 8 10 1 1 0 1 1
value=none
B 300 0 700 200 3 0 0 0 -1 -1 0 -1 -1 -1 -1 -1
T 2000 1000 8 10 0 0 0 0 1
device=none
T 2000 800 8 10 0 0 0 0 1
net=tag:1
T 2000 600 8 10 0 0 0 0 1
description=wire tag
T 2000 400 8 10 0 0 0 0 1
symversion=1.0
T 2000 200 8 10 0 0 0 0 1
author=Raphael Gosselin raphgoss69ATgmail.com
T 2000 0 8 10 0 0 0 0 1
dist-license=GPLv3
