v 20191008 2
T 700 800 8 10 1 1 0 3 1
refdes=CB?
P 0 500 300 500 1 0 0
{
T -1400 700 5 10 0 0 0 0 1
pintype=pas
T -1400 300 5 10 0 1 0 0 1
pinlabel=unknown
T -1400 500 5 10 0 0 0 0 1
pinnumber=2
T -1400 900 5 10 0 0 0 0 1
pinseq=2
}
L 300 600 700 500 3 0 0 0 -1 -1
P 1400 500 1100 500 1 0 0
{
T 1800 700 5 10 0 0 0 0 1
pintype=pas
T 1800 300 5 10 0 1 0 0 1
pinlabel=unknown
T 1800 500 5 10 0 0 0 0 1
pinnumber=1
T 1800 900 5 10 0 0 0 0 1
pinseq=1
}
T 700 200 8 10 1 1 0 5 1
value=?A
T -1400 3300 8 10 0 0 0 0 1
device=breaker-1p-thermal-magnetic
T -1400 3100 8 10 0 0 0 0 1
description=1 pole thermal magnetic circuit breaker
T -1400 2900 8 10 0 0 0 0 1
symversion=1.0
T -1400 2700 8 10 0 0 0 0 1
author=Raphael Gosselin raphgoss69ATgmail.com
T -1400 2500 8 10 0 0 0 0 1
dist-license=GPLv3
L 325 525 275 475 3 0 0 0 -1 -1
L 275 525 325 475 3 0 0 0 -1 -1
C 700 300 1 0 0 md-thermal-1.sym
T -1400 2300 8 10 0 0 0 0 1
numslots=0
T -1400 2100 8 10 0 0 0 0 1
footprint=none
C 900 300 1 0 0 md-magnetic-2.sym
{
T 500 1900 5 10 0 0 0 0 1
device=none
T 500 1500 5 10 0 0 0 0 1
symversion=1.0
}
