v 20191008 2
T -300 600 8 10 1 1 0 7 1
refdes=CB?
P 0 0 0 300 1 0 0
{
T -2200 700 5 10 0 0 0 0 1
pintype=pas
T -2200 300 5 10 0 1 0 0 1
pinlabel=unknown
T -2200 500 5 10 0 0 0 0 1
pinnumber=2
T -2200 900 5 10 0 0 0 0 1
pinseq=2
}
L 0 500 -100 900 3 0 0 0 -1 -1
P 0 1200 0 900 1 0 0
{
T 800 900 5 10 0 0 0 0 1
pintype=pas
T 800 500 5 10 0 1 0 0 1
pinlabel=unknown
T 800 700 5 10 0 0 0 0 1
pinnumber=1
T 800 1100 5 10 0 0 0 0 1
pinseq=1
}
T 300 600 8 10 1 1 0 1 1
value=?A
T -2200 2400 8 10 0 0 0 0 1
device=breaker-1p-magnetic
T -2200 2200 8 10 0 0 0 0 1
description=1 pole magnetic circuit breaker
T -2200 2000 8 10 0 0 0 0 1
symversion=1.0
T -2200 1800 8 10 0 0 0 0 1
author=Raphael Gosselin raphgoss69ATgmail.com
T -2200 1600 8 10 0 0 0 0 1
dist-license=GPLv3
L -25 875 25 925 3 0 0 0 -1 -1
L 25 875 -25 925 3 0 0 0 -1 -1
T -2200 1400 8 10 0 0 0 0 1
numslots=0
T -2200 1200 8 10 0 0 0 0 1
footprint=none
C -200 500 1 270 0 md-magnetic-2.sym
{
T 1400 900 5 10 0 0 270 0 1
device=none
T 1000 900 5 10 0 0 270 0 1
symversion=1.0
}
