v 20191008 2
T -300 600 8 10 1 1 0 7 1
refdes=CB?
P 0 0 0 300 1 0 0
{
T -2100 1100 5 10 0 0 0 0 1
pintype=pas
T -2100 700 5 10 0 1 0 0 1
pinlabel=unknown
T -2100 900 5 10 0 0 0 0 1
pinnumber=4
T -2100 1300 5 10 0 0 0 0 1
pinseq=4
}
L 0 500 -100 900 3 0 0 0 -1 -1
P 0 1200 0 900 1 0 0
{
T 1300 1100 5 10 0 0 0 0 1
pintype=pas
T 1300 700 5 10 0 1 0 0 1
pinlabel=unknown
T 1300 900 5 10 0 0 0 0 1
pinnumber=1
T 1300 1300 5 10 0 0 0 0 1
pinseq=1
}
T 700 600 8 10 1 1 0 1 1
value=?A
T -2100 3200 8 10 0 0 0 0 1
device=breaker-2p-magnetic
T -2100 3000 8 10 0 0 0 0 1
description=2 pole magnetic circuit breaker
T -2100 2800 8 10 0 0 0 0 1
symversion=1.0
T -2100 2600 8 10 0 0 0 0 1
author=Raphael Gosselin raphgoss69ATgmail.com
T -2100 2400 8 10 0 0 0 0 1
dist-license=GPLv3
L -50 700 400 700 3 1 0 2 50 50
L 400 500 300 900 3 0 0 0 -1 -1
P 400 1200 400 900 1 0 0
{
T -2100 300 5 10 0 0 0 0 1
pintype=pas
T -2100 -100 5 10 0 1 0 0 1
pinlabel=unknown
T -2100 100 5 10 0 0 0 0 1
pinnumber=2
T -2100 500 5 10 0 0 0 0 1
pinseq=2
}
P 400 0 400 300 1 0 0
{
T 1300 300 5 10 0 0 0 0 1
pintype=pas
T 1300 -100 5 10 0 1 0 0 1
pinlabel=unknown
T 1300 100 5 10 0 0 0 0 1
pinnumber=3
T 1300 500 5 10 0 0 0 0 1
pinseq=3
}
L 375 875 425 925 3 0 0 0 -1 -1
L 425 875 375 925 3 0 0 0 -1 -1
L 25 925 -25 875 3 0 0 0 -1 -1
L 25 875 -25 925 3 0 0 0 -1 -1
C -200 300 1 0 0 md-2p-magnetic-2.sym
T -2100 2200 8 10 0 0 0 0 1
numslots=0
T -2100 2000 8 10 0 0 0 0 1
footprint=none
