v 20191008 2
T -400 500 8 10 1 1 0 7 1
refdes=CB?
P 0 0 0 300 1 0 0
{
T -2100 900 5 10 0 0 0 0 1
pintype=pas
T -2100 500 5 10 0 1 0 0 1
pinlabel=unknown
T -2100 700 5 10 0 0 0 0 1
pinnumber=4
T -2100 1100 5 10 0 0 0 0 1
pinseq=4
}
L 0 300 -100 700 3 0 0 0 -1 -1
P 0 1000 0 700 1 0 0
{
T 1300 900 5 10 0 0 0 0 1
pintype=pas
T 1300 500 5 10 0 1 0 0 1
pinlabel=unknown
T 1300 700 5 10 0 0 0 0 1
pinnumber=1
T 1300 1100 5 10 0 0 0 0 1
pinseq=1
}
T 600 500 8 10 1 1 0 1 1
value=?A
T -2100 2500 8 10 0 0 0 0 1
device=breaker-2p-magnetic
T -2100 2300 8 10 0 0 0 0 1
description=2 pole magnetic circuit breaker
T -2100 2100 8 10 0 0 0 0 1
symversion=1.0
T -2100 1900 8 10 0 0 0 0 1
author=Raphael Gosselin raphgoss69ATgmail.com
T -2100 1700 8 10 0 0 0 0 1
dist-license=GPLv3
L -50 500 400 500 3 1 0 2 50 50
L 400 300 300 700 3 0 0 0 -1 -1
P 400 1000 400 700 1 0 0
{
T -2100 100 5 10 0 0 0 0 1
pintype=pas
T -2100 -300 5 10 0 1 0 0 1
pinlabel=unknown
T -2100 -100 5 10 0 0 0 0 1
pinnumber=2
T -2100 300 5 10 0 0 0 0 1
pinseq=2
}
P 400 0 400 300 1 0 0
{
T 1300 100 5 10 0 0 0 0 1
pintype=pas
T 1300 -300 5 10 0 1 0 0 1
pinlabel=unknown
T 1300 -100 5 10 0 0 0 0 1
pinnumber=3
T 1300 300 5 10 0 0 0 0 1
pinseq=3
}
L -25 400 -75 400 3 0 0 0 -1 -1
L -75 375 -75 425 3 0 0 0 -1 -1
L -75 425 -125 400 3 0 0 0 -1 -1
L -125 400 -75 375 3 0 0 0 -1 -1
L 375 400 325 400 3 0 0 0 -1 -1
L 325 375 325 425 3 0 0 0 -1 -1
L 325 425 275 400 3 0 0 0 -1 -1
L 275 400 325 375 3 0 0 0 -1 -1
T -2100 1500 8 10 0 0 0 0 1
numslots=0
T -2100 1300 8 10 0 0 0 0 1
footprint=none
