v 20191008 2
T 500 1500 8 10 1 1 0 3 1
refdes=CB?
P 0 1200 300 1200 1 0 0
{
T -1400 1400 5 10 0 0 0 0 1
pintype=pas
T -1400 1000 5 10 0 1 0 0 1
pinlabel=unknown
T -1400 1200 5 10 0 0 0 0 1
pinnumber=6
T -1400 1600 5 10 0 0 0 0 1
pinseq=6
}
L 300 1300 700 1200 3 0 0 0 -1 -1
P 1000 1200 700 1200 1 0 0
{
T 1400 1400 5 10 0 0 0 0 1
pintype=pas
T 1400 1000 5 10 0 1 0 0 1
pinlabel=unknown
T 1400 1200 5 10 0 0 0 0 1
pinnumber=1
T 1400 1600 5 10 0 0 0 0 1
pinseq=1
}
T 500 200 8 10 1 1 0 5 1
value=?A
T -1400 3000 8 10 0 0 0 0 1
device=breaker-3p
T -1400 2800 8 10 0 0 0 0 1
description=3 pole circuit breaker
T -1400 2600 8 10 0 0 0 0 1
symversion=1.0
T -1400 2400 8 10 0 0 0 0 1
author=Raphael Gosselin raphgoss69ATgmail.com
T -1400 2200 8 10 0 0 0 0 1
dist-license=GPLv3
P 0 800 300 800 1 0 0
{
T -1400 600 5 10 0 0 0 0 1
pintype=pas
T -1400 200 5 10 0 1 0 0 1
pinlabel=unknown
T -1400 400 5 10 0 0 0 0 1
pinnumber=2
T -1400 800 5 10 0 0 0 0 1
pinseq=2
}
P 1000 800 700 800 1 0 0
{
T 1400 600 5 10 0 0 0 0 1
pintype=pas
T 1400 200 5 10 0 1 0 0 1
pinlabel=unknown
T 1400 400 5 10 0 0 0 0 1
pinnumber=3
T 1400 800 5 10 0 0 0 0 1
pinseq=3
}
L 700 800 300 900 3 0 0 0 -1 -1
L 500 450 500 1250 3 1 0 2 50 50
P 0 400 300 400 1 0 0
{
T -1400 -200 5 10 0 0 0 0 1
pintype=pas
T -1400 -600 5 10 0 1 0 0 1
pinlabel=unknown
T -1400 -400 5 10 0 0 0 0 1
pinnumber=4
T -1400 0 5 10 0 0 0 0 1
pinseq=4
}
P 1000 400 700 400 1 0 0
{
T 1400 -200 5 10 0 0 0 0 1
pintype=pas
T 1400 -600 5 10 0 1 0 0 1
pinlabel=unknown
T 1400 -400 5 10 0 0 0 0 1
pinnumber=5
T 1400 0 5 10 0 0 0 0 1
pinseq=5
}
L 700 400 300 500 3 0 0 0 -1 -1
T -1400 2000 8 10 0 0 0 0 1
numslots=0
T -1400 1800 8 10 0 0 0 0 1
footprint=none
L 325 1225 275 1175 3 0 0 0 -1 -1
L 325 1175 275 1225 3 0 0 0 -1 -1
L 325 825 275 775 3 0 0 0 -1 -1
L 325 775 275 825 3 0 0 0 -1 -1
L 325 425 275 375 3 0 0 0 -1 -1
L 325 375 275 425 3 0 0 0 -1 -1
