v 20191008 2
T 500 1400 8 10 1 1 0 3 1
refdes=CB?
P 0 1100 300 1100 1 0 0
{
T -1400 1300 5 10 0 0 0 0 1
pintype=pas
T -1400 900 5 10 0 1 0 0 1
pinlabel=unknown
T -1400 1100 5 10 0 0 0 0 1
pinnumber=6
T -1400 1500 5 10 0 0 0 0 1
pinseq=6
}
L 300 1200 700 1100 3 0 0 0 -1 -1
P 1000 1100 700 1100 1 0 0
{
T 1400 1300 5 10 0 0 0 0 1
pintype=pas
T 1400 900 5 10 0 1 0 0 1
pinlabel=unknown
T 1400 1100 5 10 0 0 0 0 1
pinnumber=1
T 1400 1500 5 10 0 0 0 0 1
pinseq=1
}
T 500 200 8 10 1 1 0 5 1
value=?A
T -1400 2900 8 10 0 0 0 0 1
device=breaker-3p-magnetic
T -1400 2700 8 10 0 0 0 0 1
description=3 pole magnetic circuit breaker
T -1400 2500 8 10 0 0 0 0 1
symversion=1.0
T -1400 2300 8 10 0 0 0 0 1
author=Raphael Gosselin raphgoss69ATgmail.com
T -1400 2100 8 10 0 0 0 0 1
dist-license=GPLv3
P 0 700 300 700 1 0 0
{
T -1400 500 5 10 0 0 0 0 1
pintype=pas
T -1400 100 5 10 0 1 0 0 1
pinlabel=unknown
T -1400 300 5 10 0 0 0 0 1
pinnumber=2
T -1400 700 5 10 0 0 0 0 1
pinseq=2
}
P 1000 700 700 700 1 0 0
{
T 1400 500 5 10 0 0 0 0 1
pintype=pas
T 1400 100 5 10 0 1 0 0 1
pinlabel=unknown
T 1400 300 5 10 0 0 0 0 1
pinnumber=3
T 1400 700 5 10 0 0 0 0 1
pinseq=3
}
L 700 700 300 800 3 0 0 0 -1 -1
L 500 350 500 1150 3 1 0 2 50 50
P 0 300 300 300 1 0 0
{
T -1400 -300 5 10 0 0 0 0 1
pintype=pas
T -1400 -700 5 10 0 1 0 0 1
pinlabel=unknown
T -1400 -500 5 10 0 0 0 0 1
pinnumber=4
T -1400 -100 5 10 0 0 0 0 1
pinseq=4
}
P 1000 300 700 300 1 0 0
{
T 1400 -300 5 10 0 0 0 0 1
pintype=pas
T 1400 -700 5 10 0 1 0 0 1
pinlabel=unknown
T 1400 -500 5 10 0 0 0 0 1
pinnumber=5
T 1400 -100 5 10 0 0 0 0 1
pinseq=5
}
L 700 300 300 400 3 0 0 0 -1 -1
L 600 325 600 375 3 0 0 0 -1 -1
L 625 375 575 375 3 0 0 0 -1 -1
L 575 375 600 425 3 0 0 0 -1 -1
L 600 425 625 375 3 0 0 0 -1 -1
L 600 725 600 775 3 0 0 0 -1 -1
L 575 775 625 775 3 0 0 0 -1 -1
L 625 775 600 825 3 0 0 0 -1 -1
L 600 825 575 775 3 0 0 0 -1 -1
L 600 1125 600 1175 3 0 0 0 -1 -1
L 625 1175 575 1175 3 0 0 0 -1 -1
L 575 1175 600 1225 3 0 0 0 -1 -1
L 600 1225 625 1175 3 0 0 0 -1 -1
T -1400 1900 8 10 0 0 0 0 1
numslots=0
T -1400 1700 8 10 0 0 0 0 1
footprint=none
