v 20191008 2
T 600 1600 8 10 1 1 0 3 1
refdes=CB?
P 0 1300 300 1300 1 0 0
{
T -1400 1500 5 10 0 0 0 0 1
pintype=pas
T -1400 1100 5 10 0 1 0 0 1
pinlabel=unknown
T -1400 1300 5 10 0 0 0 0 1
pinnumber=6
T -1400 1700 5 10 0 0 0 0 1
pinseq=6
}
L 300 1400 700 1300 3 0 0 0 -1 -1
P 1200 1300 900 1300 1 0 0
{
T 1600 1500 5 10 0 0 0 0 1
pintype=pas
T 1600 1100 5 10 0 1 0 0 1
pinlabel=unknown
T 1600 1300 5 10 0 0 0 0 1
pinnumber=1
T 1600 1700 5 10 0 0 0 0 1
pinseq=1
}
T 600 200 8 10 1 1 0 5 1
value=?A
T -1400 4100 8 10 0 0 0 0 1
device=breaker-3p-thermal
T -1400 3900 8 10 0 0 0 0 1
description=3 pole thermal circuit breaker
T -1400 3700 8 10 0 0 0 0 1
symversion=1.0
T -1400 3500 8 10 0 0 0 0 1
author=Raphael Gosselin raphgoss69ATgmail.com
T -1400 3300 8 10 0 0 0 0 1
dist-license=GPLv3
P 0 900 300 900 1 0 0
{
T -1400 700 5 10 0 0 0 0 1
pintype=pas
T -1400 300 5 10 0 1 0 0 1
pinlabel=unknown
T -1400 500 5 10 0 0 0 0 1
pinnumber=2
T -1400 900 5 10 0 0 0 0 1
pinseq=2
}
P 1200 900 900 900 1 0 0
{
T 1600 700 5 10 0 0 0 0 1
pintype=pas
T 1600 300 5 10 0 1 0 0 1
pinlabel=unknown
T 1600 500 5 10 0 0 0 0 1
pinnumber=3
T 1600 900 5 10 0 0 0 0 1
pinseq=3
}
L 700 900 300 1000 3 0 0 0 -1 -1
L 500 550 500 1350 3 1 0 2 50 50
P 0 500 300 500 1 0 0
{
T -1400 -100 5 10 0 0 0 0 1
pintype=pas
T -1400 -500 5 10 0 1 0 0 1
pinlabel=unknown
T -1400 -300 5 10 0 0 0 0 1
pinnumber=4
T -1400 100 5 10 0 0 0 0 1
pinseq=4
}
P 1200 500 900 500 1 0 0
{
T 1600 -100 5 10 0 0 0 0 1
pintype=pas
T 1600 -500 5 10 0 1 0 0 1
pinlabel=unknown
T 1600 -300 5 10 0 0 0 0 1
pinnumber=5
T 1600 100 5 10 0 0 0 0 1
pinseq=5
}
L 700 500 300 600 3 0 0 0 -1 -1
C 700 300 1 0 0 md-3p-thermal-1.sym
T -1400 3100 8 10 0 0 0 0 1
numslots=0
T -1400 2900 8 10 0 0 0 0 1
footprint=none
L 275 1275 325 1325 3 0 0 0 -1 -1
L 325 1275 275 1325 3 0 0 0 -1 -1
L 325 875 275 925 3 0 0 0 -1 -1
L 325 925 275 875 3 0 0 0 -1 -1
L 275 475 325 525 3 0 0 0 -1 -1
L 325 475 275 525 3 0 0 0 -1 -1
