v 20191008 2
T -2000 3600 8 10 0 0 0 0 1
device=contactor-3p
T -2000 3400 8 10 0 0 0 0 1
description=3 poles contactor
T -2000 3200 8 10 0 0 0 0 1
symversion=1.0
T -2000 3000 8 10 0 0 0 0 1
author=Raphael Gosselin raphgoss69ATgmail.com
T -2000 2800 8 10 0 0 0 0 1
dist-license=GPLv3
B 300 300 400 200 3 0 0 0 -1 -1 0 -1 -1 -1 -1 -1
T 500 400 8 10 1 1 0 4 1
refdes=K?
P 0 400 300 400 1 0 0
{
T -2000 200 5 10 0 0 0 0 1
pintype=pas
T 200 500 9 10 1 1 0 6 1
pinlabel=A1
T -2000 0 5 10 0 0 0 0 1
pinnumber=7
T -2000 400 5 10 0 0 0 0 1
pinseq=7
}
P 1000 400 700 400 1 0 0
{
T 1900 200 5 10 0 0 0 0 1
pintype=pas
T 800 500 9 10 1 1 0 0 1
pinlabel=A2
T 1900 0 5 10 0 0 0 0 1
pinnumber=8
T 1900 400 5 10 0 0 0 0 1
pinseq=8
}
P 0 1600 300 1600 1 0 0
{
T -2000 2000 5 10 0 0 0 0 1
pintype=pas
T 200 1700 9 10 1 1 0 6 1
pinlabel=L1
T -2000 1800 5 10 0 0 0 0 1
pinnumber=1
T -2000 2200 5 10 0 0 0 0 1
pinseq=1
}
P 1000 1600 700 1600 1 0 0
{
T 1900 2000 5 10 0 0 0 0 1
pintype=pas
T 800 1700 9 10 1 1 0 0 1
pinlabel=T1
T 1900 1800 5 10 0 0 0 0 1
pinnumber=2
T 1900 2200 5 10 0 0 0 0 1
pinseq=2
}
L 700 1600 300 1700 3 0 0 0 -1 -1
P 0 1200 300 1200 1 0 0
{
T -2000 1400 5 10 0 0 0 0 1
pintype=pas
T 200 1300 9 10 1 1 0 6 1
pinlabel=L2
T -2000 1200 5 10 0 0 0 0 1
pinnumber=3
T -2000 1600 5 10 0 0 0 0 1
pinseq=3
}
P 1000 1200 700 1200 1 0 0
{
T 1900 1400 5 10 0 0 0 0 1
pintype=pas
T 800 1300 9 10 1 1 0 0 1
pinlabel=T2
T 1900 1200 5 10 0 0 0 0 1
pinnumber=4
T 1900 1600 5 10 0 0 0 0 1
pinseq=4
}
P 0 800 300 800 1 0 0
{
T -2000 800 5 10 0 0 0 0 1
pintype=pas
T 200 900 9 10 1 1 0 6 1
pinlabel=L3
T -2000 600 5 10 0 0 0 0 1
pinnumber=5
T -2000 1000 5 10 0 0 0 0 1
pinseq=5
}
P 1000 800 700 800 1 0 0
{
T 1900 800 5 10 0 0 0 0 1
pintype=pas
T 800 900 9 10 1 1 0 0 1
pinlabel=T3
T 1900 600 5 10 0 0 0 0 1
pinnumber=6
T 1900 1000 5 10 0 0 0 0 1
pinseq=6
}
L 700 1200 300 1300 3 0 0 0 -1 -1
L 700 800 300 900 3 0 0 0 -1 -1
L 500 1650 500 500 3 1 0 2 50 50
A 250 1600 50 0 180 3 0 0 0 -1 -1
A 250 1200 50 0 180 3 0 0 0 -1 -1
A 250 800 50 0 180 3 0 0 0 -1 -1
T -2000 2600 8 10 0 0 0 0 1
numslots=0
T -2000 2400 8 10 0 0 0 0 1
footprint=none
T 500 200 8 10 1 1 0 5 1
value=?A
