v 20191008 2
L 0 300 400 300 3 0 0 0 -1 -1
P 200 0 200 300 1 0 0
{
T -200 -600 5 10 0 0 0 0 1
pintype=pwr
T 200 400 9 10 1 1 0 3 1
pinlabel=L3
T -200 -400 5 10 0 0 0 0 1
pinnumber=1
T -200 -200 5 10 0 0 0 0 1
pinseq=1
}
T 1000 400 8 10 0 0 0 0 1
device=none
T 1000 200 8 10 0 0 0 0 1
description=L3 power rail
T 1000 0 8 10 0 0 0 0 1
symversion=1.0
T 1000 -200 8 10 0 0 0 0 1
author=Raphael Gosselin raphgoss69ATgmail.com
T 1000 -400 8 10 0 0 0 0 1
dist-license=GPLv3
T 1000 -600 8 10 0 0 0 0 1
net=L3:1
