v 20130925 2
L 0 300 400 300 3 0 0 0 -1 -1
P 200 0 200 300 1 0 0
{
T 600 400 5 10 0 0 0 0 1
pintype=pwr
T 600 0 5 10 0 0 0 0 1
pinlabel=none
T 600 200 5 10 0 0 0 0 1
pinnumber=1
T 600 600 5 10 0 0 0 0 1
pinseq=1
}
T 200 400 9 10 1 0 0 3 1
12V
T 0 1900 8 10 0 0 0 0 1
device=none
T 0 1700 8 10 0 0 0 0 1
description=12V rail
T 0 1500 8 10 0 0 0 0 1
net=12V:1
T 0 1300 8 10 0 0 0 0 1
symversion=1.0
T 0 1100 8 10 0 0 0 0 1
author=Raphael Gosselin raphgoss69ATgmail.com
T 0 900 8 10 0 0 0 0 1
dist-license=GPLv3
