v 20191008 2
L 0 300 400 300 3 0 0 0 -1 -1
P 200 0 200 300 1 0 0
{
T 1200 1200 5 10 0 0 0 0 1
pintype=pwr
T 200 400 9 10 1 1 0 3 1
pinlabel=NC
T 1200 1400 5 10 0 0 0 0 1
pinnumber=1
T 1200 1600 5 10 0 0 0 0 1
pinseq=1
}
T 1200 1000 8 10 0 0 0 0 1
device=none
T 1200 800 8 10 0 0 0 0 1
description=neutral control power rail
T 1200 600 8 10 0 0 0 0 1
symversion=1.0
T 1200 400 8 10 0 0 0 0 1
author=Raphael Gosselin raphgoss69ATgmail.com
T 1200 200 8 10 0 0 0 0 1
dist-license=GPLv3
T 1200 0 8 10 0 0 0 0 1
net=NC:1
