v 20191008 2
V 600 400 300 3 0 0 0 -1 -1 0 -1 -1 -1 -1 -1
A 600 500 100 270 180 3 0 0 0 -1 -1
A 600 300 100 90 180 3 0 0 0 -1 -1
P 0 0 300 0 1 0 0
{
T 1700 1200 5 10 0 0 0 0 1
pintype=pwr
T 200 100 9 10 1 1 0 6 1
pinlabel=L3
T 1700 1000 5 10 0 0 0 0 1
pinnumber=3
T 1700 1400 5 10 0 0 0 0 1
pinseq=3
}
P 0 400 300 400 1 0 0
{
T 1700 600 5 10 0 0 0 0 1
pintype=pwr
T 200 500 9 10 1 1 0 6 1
pinlabel=L2
T 1700 400 5 10 0 0 0 0 1
pinnumber=2
T 1700 800 5 10 0 0 0 0 1
pinseq=2
}
T 1000 200 8 10 1 1 0 1 1
value=600V
T -200 -400 8 10 0 0 0 0 1
device=source-3p-vac
T -200 -600 8 10 0 0 0 0 1
description=600VAC source 
T -200 -800 8 10 0 0 0 0 1
symversion=1.0
T -200 -1000 8 10 0 0 0 0 1
author=Raphael Gosselin raphgoss69ATgmail.com
T -200 -1200 8 10 0 0 0 0 1
dist-license=GPLv3
P 0 800 300 800 1 0 0
{
T 1700 0 5 10 0 0 0 0 1
pintype=pwr
T 200 900 9 10 1 1 0 6 1
pinlabel=L1
T 1700 -200 5 10 0 0 0 0 1
pinnumber=1
T 1700 200 5 10 0 0 0 0 1
pinseq=1
}
L 600 100 300 0 3 0 0 0 -1 -1
L 600 700 300 800 3 0 0 0 -1 -1
T -200 -1400 8 10 0 0 0 0 1
numslots=0
T -200 -1600 8 10 0 0 0 0 1
footprint=none
T 1000 400 8 10 1 1 0 1 1
refdes=PWR?
