v 20191008 2
L 200 700 200 300 3 0 0 0 -1 -1
A 200 500 200 90 180 3 0 0 0 -1 -1
L 100 675 100 700 3 0 0 0 -1 -1
L 100 325 100 300 3 0 0 0 -1 -1
P 100 1000 100 700 1 0 0
{
T -1700 700 5 10 0 0 0 0 1
pintype=pwr
T 200 800 9 10 1 1 0 0 1
pinlabel=A1
T -1700 500 5 10 0 0 0 0 1
pinnumber=2
T -1700 900 5 10 0 0 0 0 1
pinseq=2
}
P 100 0 100 300 1 0 0
{
T -1700 100 5 10 0 0 0 0 1
pintype=pwr
T 200 200 9 10 1 1 0 2 1
pinlabel=A2
T -1700 -100 5 10 0 0 0 0 1
pinnumber=1
T -1700 300 5 10 0 0 0 0 1
pinseq=1
}
T 300 500 8 10 1 1 0 1 1
refdes=BUZ?
T -1700 2300 8 10 0 0 0 0 1
device=buzzer
T -1700 2100 8 10 0 0 0 0 1
description=buzzer
T -1700 1900 8 10 0 0 0 0 1
symversion=1.0
T -1700 1700 8 10 0 0 0 0 1
author=Raphael Gosselin raphgoss69ATgmail.com
T -1700 1500 8 10 0 0 0 0 1
dist-license=GPLv3
T -1700 1300 8 10 0 0 0 0 1
numslots=0
T -1700 1100 8 10 0 0 0 0 1
footprint=none
