v 20191008 2
T 1000 9300 9 10 1 0 0 5 1
Arduino Due
T 1000 9400 8 10 1 1 0 3 1
refdes=U?
B 300 0 1400 9600 3 0 0 0 -1 -1 0 -1 -1 -1 -1 -1
P 0 9000 300 9000 1 0 0
{
T -2100 12600 5 10 0 0 0 6 1
pintype=pwr
T 400 9000 9 10 1 1 0 1 1
pinlabel=VIN
T -2100 12800 5 10 0 0 0 6 1
pinnumber=VIN
T -2100 13000 5 10 0 0 0 6 1
pinseq=1
}
P 0 8800 300 8800 1 0 0
{
T -2100 12200 5 10 0 0 0 6 1
pintype=pwr
T 400 8800 9 10 1 1 0 1 1
pinlabel=GND
T -2100 12000 5 10 0 0 0 6 1
pinnumber=GND
T -2100 12400 5 10 0 0 0 6 1
pinseq=2
}
P 0 8600 300 8600 1 0 0
{
T -2100 11600 5 10 0 0 0 6 1
pintype=pwr
T 400 8600 9 10 1 1 0 1 1
pinlabel=5V
T -2100 11400 5 10 0 0 0 6 1
pinnumber=5V
T -2100 11800 5 10 0 0 0 6 1
pinseq=3
}
P 0 8400 300 8400 1 0 0
{
T -2100 11000 5 10 0 0 0 6 1
pintype=pwr
T 400 8400 9 10 1 1 0 1 1
pinlabel=3.3V
T -2100 10800 5 10 0 0 0 6 1
pinnumber=3.3V
T -2100 11200 5 10 0 0 0 6 1
pinseq=4
}
P 0 8000 300 8000 1 0 0
{
T -2100 10400 5 10 0 0 0 6 1
pintype=in
T 400 8000 9 10 1 1 0 1 1
pinlabel=A0
T -2100 10200 5 10 0 0 0 6 1
pinnumber=D54
T -2100 10600 5 10 0 0 0 6 1
pinseq=5
}
P 0 7800 300 7800 1 0 0
{
T -2100 9800 5 10 0 0 0 6 1
pintype=in
T 400 7800 9 10 1 1 0 1 1
pinlabel=A1
T -2100 9600 5 10 0 0 0 6 1
pinnumber=D55
T -2100 10000 5 10 0 0 0 6 1
pinseq=6
}
P 0 7600 300 7600 1 0 0
{
T -2100 9200 5 10 0 0 0 6 1
pintype=in
T 400 7600 9 10 1 1 0 1 1
pinlabel=A2
T -2100 9000 5 10 0 0 0 6 1
pinnumber=D56
T -2100 9400 5 10 0 0 0 6 1
pinseq=7
}
P 0 7400 300 7400 1 0 0
{
T -2100 8600 5 10 0 0 0 6 1
pintype=in
T 400 7400 9 10 1 1 0 1 1
pinlabel=A3
T -2100 8400 5 10 0 0 0 6 1
pinnumber=D57
T -2100 8800 5 10 0 0 0 6 1
pinseq=8
}
P 0 7200 300 7200 1 0 0
{
T -2100 8000 5 10 0 0 0 6 1
pintype=in
T 400 7200 9 10 1 1 0 1 1
pinlabel=A4
T -2100 7800 5 10 0 0 0 6 1
pinnumber=D58
T -2100 8200 5 10 0 0 0 6 1
pinseq=9
}
P 0 7000 300 7000 1 0 0
{
T -2100 7400 5 10 0 0 0 6 1
pintype=in
T 400 7000 9 10 1 1 0 1 1
pinlabel=A5
T -2100 7200 5 10 0 0 0 6 1
pinnumber=D59
T -2100 7600 5 10 0 0 0 6 1
pinseq=10
}
P 0 6800 300 6800 1 0 0
{
T -2100 6800 5 10 0 0 0 6 1
pintype=in
T 400 6800 9 10 1 1 0 1 1
pinlabel=A6
T -2100 6600 5 10 0 0 0 6 1
pinnumber=D60
T -2100 7000 5 10 0 0 0 6 1
pinseq=11
}
P 0 6600 300 6600 1 0 0
{
T -2100 6200 5 10 0 0 0 6 1
pintype=in
T 400 6600 9 10 1 1 0 1 1
pinlabel=A7
T -2100 6000 5 10 0 0 0 6 1
pinnumber=D61
T -2100 6400 5 10 0 0 0 6 1
pinseq=12
}
P 0 6400 300 6400 1 0 0
{
T -2100 5600 5 10 0 0 0 6 1
pintype=in
T 400 6400 9 10 1 1 0 1 1
pinlabel=A8
T -2100 5400 5 10 0 0 0 6 1
pinnumber=D62
T -2100 5800 5 10 0 0 0 6 1
pinseq=13
}
P 0 6200 300 6200 1 0 0
{
T -2100 5000 5 10 0 0 0 6 1
pintype=in
T 400 6200 9 10 1 1 0 1 1
pinlabel=A9
T -2100 4800 5 10 0 0 0 6 1
pinnumber=D63
T -2100 5200 5 10 0 0 0 6 1
pinseq=14
}
P 0 6000 300 6000 1 0 0
{
T -2100 4400 5 10 0 0 0 6 1
pintype=in
T 400 6000 9 10 1 1 0 1 1
pinlabel=A10
T -2100 4200 5 10 0 0 0 6 1
pinnumber=D64
T -2100 4600 5 10 0 0 0 6 1
pinseq=15
}
P 0 5800 300 5800 1 0 0
{
T -2100 3800 5 10 0 0 0 6 1
pintype=in
T 400 5800 9 10 1 1 0 1 1
pinlabel=A11
T -2100 3600 5 10 0 0 0 6 1
pinnumber=D65
T -2100 4000 5 10 0 0 0 6 1
pinseq=16
}
P 0 5400 300 5400 1 0 0
{
T -2100 3200 5 10 0 0 0 6 1
pintype=io
T 400 5400 9 10 1 1 0 1 1
pinlabel=SDA
T -2100 3000 5 10 0 0 0 6 1
pinnumber=D20
T -2100 3400 5 10 0 0 0 6 1
pinseq=17
}
P 0 5200 300 5200 1 0 0
{
T -2100 2600 5 10 0 0 0 6 1
pintype=io
T 400 5200 9 10 1 1 0 1 1
pinlabel=SCL
T -2100 2400 5 10 0 0 0 6 1
pinnumber=D21
T -2100 2800 5 10 0 0 0 6 1
pinseq=18
}
P 0 4800 300 4800 1 0 0
{
T -2100 1400 5 10 0 0 0 6 1
pintype=io
T 400 4800 9 10 1 1 0 1 1
pinlabel=SCL1
T -2100 1200 5 10 0 0 0 6 1
pinnumber=D71
T -2100 1600 5 10 0 0 0 6 1
pinseq=20
}
P 0 5000 300 5000 1 0 0
{
T -2100 2000 5 10 0 0 0 6 1
pintype=io
T 400 5000 9 10 1 1 0 1 1
pinlabel=SDA1
T -2100 1800 5 10 0 0 0 6 1
pinnumber=D70
T -2100 2200 5 10 0 0 0 6 1
pinseq=19
}
P 0 4200 300 4200 1 0 0
{
T -2100 800 5 10 0 0 0 6 1
pintype=io
T 400 4200 9 10 1 1 0 1 1
pinlabel=MISO
T -2100 600 5 10 0 0 0 6 1
pinnumber=D74
T -2100 1000 5 10 0 0 0 6 1
pinseq=21
}
P 0 4000 300 4000 1 0 0
{
T -2100 200 5 10 0 0 0 6 1
pintype=io
T 400 4000 9 10 1 1 0 1 1
pinlabel=MOSI
T -2100 0 5 10 0 0 0 6 1
pinnumber=D75
T -2100 400 5 10 0 0 0 6 1
pinseq=22
}
P 0 3800 300 3800 1 0 0
{
T -2100 -400 5 10 0 0 0 6 1
pintype=io
T 400 3800 9 10 1 1 0 1 1
pinlabel=SCK
T -2100 -600 5 10 0 0 0 6 1
pinnumber=D76
T -2100 -200 5 10 0 0 0 6 1
pinseq=23
}
P 0 3400 300 3400 1 0 0
{
T -500 5600 5 10 0 0 0 6 1
pintype=io
T 400 3400 9 10 1 1 0 1 1
pinlabel=RX0
T -500 5400 5 10 0 0 0 6 1
pinnumber=D0
T -500 5800 5 10 0 0 0 6 1
pinseq=24
}
P 0 3200 300 3200 1 0 0
{
T -500 5000 5 10 0 0 0 6 1
pintype=io
T 400 3200 9 10 1 1 0 1 1
pinlabel=TX0
T -500 4800 5 10 0 0 0 6 1
pinnumber=D1
T -500 5200 5 10 0 0 0 6 1
pinseq=25
}
P 0 2800 300 2800 1 0 0
{
T -500 3800 5 10 0 0 0 6 1
pintype=io
T 400 2800 9 10 1 1 0 1 1
pinlabel=TX1
T -500 3600 5 10 0 0 0 6 1
pinnumber=D18
T -500 4000 5 10 0 0 0 6 1
pinseq=27
}
P 0 3000 300 3000 1 0 0
{
T -500 4400 5 10 0 0 0 6 1
pintype=io
T 400 3000 9 10 1 1 0 1 1
pinlabel=RX1
T -500 4200 5 10 0 0 0 6 1
pinnumber=D19
T -500 4600 5 10 0 0 0 6 1
pinseq=26
}
P 0 2400 300 2400 1 0 0
{
T -500 2600 5 10 0 0 0 6 1
pintype=io
T 400 2400 9 10 1 1 0 1 1
pinlabel=TX2
T -500 2400 5 10 0 0 0 6 1
pinnumber=D16
T -500 2800 5 10 0 0 0 6 1
pinseq=29
}
P 0 2600 300 2600 1 0 0
{
T -500 3200 5 10 0 0 0 6 1
pintype=io
T 400 2600 9 10 1 1 0 1 1
pinlabel=RX2
T -500 3000 5 10 0 0 0 6 1
pinnumber=D17
T -500 3400 5 10 0 0 0 6 1
pinseq=28
}
P 0 2000 300 2000 1 0 0
{
T -500 1400 5 10 0 0 0 6 1
pintype=io
T 400 2000 9 10 1 1 0 1 1
pinlabel=TX3
T -500 1200 5 10 0 0 0 6 1
pinnumber=D14
T -500 1600 5 10 0 0 0 6 1
pinseq=31
}
P 0 2200 300 2200 1 0 0
{
T -500 2000 5 10 0 0 0 6 1
pintype=io
T 400 2200 9 10 1 1 0 1 1
pinlabel=RX3
T -500 1800 5 10 0 0 0 6 1
pinnumber=D15
T -500 2200 5 10 0 0 0 6 1
pinseq=30
}
P 2000 9000 1700 9000 1 0 0
{
T 2700 12800 5 10 0 0 0 0 1
pintype=io
T 1645 8995 9 10 1 1 0 7 1
pinlabel=2
T 2700 12600 5 10 0 0 0 0 1
pinnumber=D2
T 2700 13000 5 10 0 0 0 0 1
pinseq=32
}
P 2000 8800 1700 8800 1 0 0
{
T 2700 12200 5 10 0 0 0 0 1
pintype=io
T 1645 8795 9 10 1 1 0 7 1
pinlabel=3
T 2700 12000 5 10 0 0 0 0 1
pinnumber=D3
T 2700 12400 5 10 0 0 0 0 1
pinseq=33
}
P 2000 8600 1700 8600 1 0 0
{
T 2700 11600 5 10 0 0 0 0 1
pintype=io
T 1645 8595 9 10 1 1 0 7 1
pinlabel=4
T 2700 11400 5 10 0 0 0 0 1
pinnumber=D4
T 2700 11800 5 10 0 0 0 0 1
pinseq=34
}
P 2000 8400 1700 8400 1 0 0
{
T 2700 11000 5 10 0 0 0 0 1
pintype=io
T 1645 8395 9 10 1 1 0 7 1
pinlabel=5
T 2700 10800 5 10 0 0 0 0 1
pinnumber=D5
T 2700 11200 5 10 0 0 0 0 1
pinseq=35
}
P 2000 8200 1700 8200 1 0 0
{
T 2700 10400 5 10 0 0 0 0 1
pintype=io
T 1645 8195 9 10 1 1 0 7 1
pinlabel=6
T 2700 10200 5 10 0 0 0 0 1
pinnumber=D6
T 2700 10600 5 10 0 0 0 0 1
pinseq=36
}
P 2000 8000 1700 8000 1 0 0
{
T 2700 9800 5 10 0 0 0 0 1
pintype=io
T 1645 7995 9 10 1 1 0 7 1
pinlabel=7
T 2700 9600 5 10 0 0 0 0 1
pinnumber=D7
T 2700 10000 5 10 0 0 0 0 1
pinseq=37
}
P 2000 7800 1700 7800 1 0 0
{
T 2700 9200 5 10 0 0 0 0 1
pintype=io
T 1645 7795 9 10 1 1 0 7 1
pinlabel=8
T 2700 9000 5 10 0 0 0 0 1
pinnumber=D8
T 2700 9400 5 10 0 0 0 0 1
pinseq=38
}
P 2000 7600 1700 7600 1 0 0
{
T 2700 8600 5 10 0 0 0 0 1
pintype=io
T 1645 7595 9 10 1 1 0 7 1
pinlabel=9
T 2700 8400 5 10 0 0 0 0 1
pinnumber=D9
T 2700 8800 5 10 0 0 0 0 1
pinseq=39
}
P 2000 7400 1700 7400 1 0 0
{
T 2700 8000 5 10 0 0 0 0 1
pintype=io
T 1645 7395 9 10 1 1 0 7 1
pinlabel=10
T 2700 7800 5 10 0 0 0 0 1
pinnumber=D10
T 2700 8200 5 10 0 0 0 0 1
pinseq=40
}
P 2000 7200 1700 7200 1 0 0
{
T 2700 7400 5 10 0 0 0 0 1
pintype=io
T 1645 7195 9 10 1 1 0 7 1
pinlabel=11
T 2700 7200 5 10 0 0 0 0 1
pinnumber=D11
T 2700 7600 5 10 0 0 0 0 1
pinseq=41
}
P 2000 7000 1700 7000 1 0 0
{
T 2700 6800 5 10 0 0 0 0 1
pintype=io
T 1645 6995 9 10 1 1 0 7 1
pinlabel=12
T 2700 6600 5 10 0 0 0 0 1
pinnumber=D12
T 2700 7000 5 10 0 0 0 0 1
pinseq=42
}
P 2000 6800 1700 6800 1 0 0
{
T 2700 6200 5 10 0 0 0 0 1
pintype=io
T 1645 6795 9 10 1 1 0 7 1
pinlabel=13
T 2700 6000 5 10 0 0 0 0 1
pinnumber=D13
T 2700 6400 5 10 0 0 0 0 1
pinseq=43
}
P 2000 6400 1700 6400 1 0 0
{
T 2700 5600 5 10 0 0 0 0 1
pintype=io
T 1645 6395 9 10 1 1 0 7 1
pinlabel=22
T 2700 5400 5 10 0 0 0 0 1
pinnumber=D22
T 2700 5800 5 10 0 0 0 0 1
pinseq=44
}
P 2000 6200 1700 6200 1 0 0
{
T 2700 5000 5 10 0 0 0 0 1
pintype=io
T 1645 6195 9 10 1 1 0 7 1
pinlabel=23
T 2700 4800 5 10 0 0 0 0 1
pinnumber=D23
T 2700 5200 5 10 0 0 0 0 1
pinseq=45
}
P 2000 6000 1700 6000 1 0 0
{
T 2700 4400 5 10 0 0 0 0 1
pintype=io
T 1645 5995 9 10 1 1 0 7 1
pinlabel=24
T 2700 4200 5 10 0 0 0 0 1
pinnumber=D24
T 2700 4600 5 10 0 0 0 0 1
pinseq=46
}
P 2000 5800 1700 5800 1 0 0
{
T 2700 3800 5 10 0 0 0 0 1
pintype=io
T 1645 5795 9 10 1 1 0 7 1
pinlabel=25
T 2700 3600 5 10 0 0 0 0 1
pinnumber=D25
T 2700 4000 5 10 0 0 0 0 1
pinseq=47
}
P 2000 5600 1700 5600 1 0 0
{
T 2700 3200 5 10 0 0 0 0 1
pintype=io
T 1645 5595 9 10 1 1 0 7 1
pinlabel=26
T 2700 3000 5 10 0 0 0 0 1
pinnumber=D26
T 2700 3400 5 10 0 0 0 0 1
pinseq=48
}
P 2000 5400 1700 5400 1 0 0
{
T 2700 2600 5 10 0 0 0 0 1
pintype=io
T 1645 5395 9 10 1 1 0 7 1
pinlabel=27
T 2700 2400 5 10 0 0 0 0 1
pinnumber=D27
T 2700 2800 5 10 0 0 0 0 1
pinseq=49
}
P 2000 5200 1700 5200 1 0 0
{
T 2700 2000 5 10 0 0 0 0 1
pintype=io
T 1645 5195 9 10 1 1 0 7 1
pinlabel=28
T 2700 1800 5 10 0 0 0 0 1
pinnumber=D28
T 2700 2200 5 10 0 0 0 0 1
pinseq=50
}
P 2000 5000 1700 5000 1 0 0
{
T 2700 1400 5 10 0 0 0 0 1
pintype=io
T 1645 4995 9 10 1 1 0 7 1
pinlabel=29
T 2700 1200 5 10 0 0 0 0 1
pinnumber=D29
T 2700 1600 5 10 0 0 0 0 1
pinseq=51
}
P 2000 4800 1700 4800 1 0 0
{
T 2700 800 5 10 0 0 0 0 1
pintype=io
T 1645 4795 9 10 1 1 0 7 1
pinlabel=30
T 2700 600 5 10 0 0 0 0 1
pinnumber=D30
T 2700 1000 5 10 0 0 0 0 1
pinseq=52
}
P 2000 4600 1700 4600 1 0 0
{
T 2700 200 5 10 0 0 0 0 1
pintype=io
T 1645 4595 9 10 1 1 0 7 1
pinlabel=31
T 2700 0 5 10 0 0 0 0 1
pinnumber=D31
T 2700 400 5 10 0 0 0 0 1
pinseq=53
}
P 2000 4400 1700 4400 1 0 0
{
T 2700 -400 5 10 0 0 0 0 1
pintype=io
T 1645 4395 9 10 1 1 0 7 1
pinlabel=32
T 2700 -600 5 10 0 0 0 0 1
pinnumber=D32
T 2700 -200 5 10 0 0 0 0 1
pinseq=54
}
P 2000 4200 1700 4200 1 0 0
{
T 2700 -1000 5 10 0 0 0 0 1
pintype=io
T 1645 4195 9 10 1 1 0 7 1
pinlabel=33
T 2700 -1200 5 10 0 0 0 0 1
pinnumber=D33
T 2700 -800 5 10 0 0 0 0 1
pinseq=55
}
P 2000 4000 1700 4000 1 0 0
{
T 4500 12800 5 10 0 0 0 0 1
pintype=io
T 1645 3995 9 10 1 1 0 7 1
pinlabel=34
T 4500 12600 5 10 0 0 0 0 1
pinnumber=D34
T 4500 13000 5 10 0 0 0 0 1
pinseq=56
}
P 2000 3800 1700 3800 1 0 0
{
T 4500 12200 5 10 0 0 0 0 1
pintype=io
T 1645 3795 9 10 1 1 0 7 1
pinlabel=35
T 4500 12000 5 10 0 0 0 0 1
pinnumber=D35
T 4500 12400 5 10 0 0 0 0 1
pinseq=57
}
P 2000 3600 1700 3600 1 0 0
{
T 4500 11600 5 10 0 0 0 0 1
pintype=io
T 1645 3595 9 10 1 1 0 7 1
pinlabel=36
T 4500 11400 5 10 0 0 0 0 1
pinnumber=D36
T 4500 11800 5 10 0 0 0 0 1
pinseq=58
}
P 2000 3400 1700 3400 1 0 0
{
T 4500 11000 5 10 0 0 0 0 1
pintype=io
T 1645 3395 9 10 1 1 0 7 1
pinlabel=37
T 4500 10800 5 10 0 0 0 0 1
pinnumber=D37
T 4500 11200 5 10 0 0 0 0 1
pinseq=59
}
P 2000 3200 1700 3200 1 0 0
{
T 4500 10400 5 10 0 0 0 0 1
pintype=io
T 1645 3195 9 10 1 1 0 7 1
pinlabel=38
T 4500 10200 5 10 0 0 0 0 1
pinnumber=D38
T 4500 10600 5 10 0 0 0 0 1
pinseq=60
}
P 2000 3000 1700 3000 1 0 0
{
T 4500 9800 5 10 0 0 0 0 1
pintype=io
T 1645 2995 9 10 1 1 0 7 1
pinlabel=39
T 4500 9600 5 10 0 0 0 0 1
pinnumber=D39
T 4500 10000 5 10 0 0 0 0 1
pinseq=61
}
P 2000 2800 1700 2800 1 0 0
{
T 4500 9200 5 10 0 0 0 0 1
pintype=io
T 1645 2795 9 10 1 1 0 7 1
pinlabel=40
T 4500 9000 5 10 0 0 0 0 1
pinnumber=D40
T 4500 9400 5 10 0 0 0 0 1
pinseq=62
}
P 2000 2600 1700 2600 1 0 0
{
T 4500 8600 5 10 0 0 0 0 1
pintype=io
T 1645 2595 9 10 1 1 0 7 1
pinlabel=41
T 4500 8400 5 10 0 0 0 0 1
pinnumber=D41
T 4500 8800 5 10 0 0 0 0 1
pinseq=63
}
P 2000 2400 1700 2400 1 0 0
{
T 4500 8000 5 10 0 0 0 0 1
pintype=io
T 1645 2395 9 10 1 1 0 7 1
pinlabel=42
T 4500 7800 5 10 0 0 0 0 1
pinnumber=D42
T 4500 8200 5 10 0 0 0 0 1
pinseq=64
}
P 2000 2200 1700 2200 1 0 0
{
T 4500 7400 5 10 0 0 0 0 1
pintype=io
T 1645 2195 9 10 1 1 0 7 1
pinlabel=43
T 4500 7200 5 10 0 0 0 0 1
pinnumber=D43
T 4500 7600 5 10 0 0 0 0 1
pinseq=65
}
P 2000 2000 1700 2000 1 0 0
{
T 4500 6800 5 10 0 0 0 0 1
pintype=io
T 1645 1995 9 10 1 1 0 7 1
pinlabel=44
T 4500 6600 5 10 0 0 0 0 1
pinnumber=D44
T 4500 7000 5 10 0 0 0 0 1
pinseq=66
}
P 2000 1800 1700 1800 1 0 0
{
T 4500 6200 5 10 0 0 0 0 1
pintype=io
T 1645 1795 9 10 1 1 0 7 1
pinlabel=45
T 4500 6000 5 10 0 0 0 0 1
pinnumber=D45
T 4500 6400 5 10 0 0 0 0 1
pinseq=67
}
P 2000 1600 1700 1600 1 0 0
{
T 4500 5600 5 10 0 0 0 0 1
pintype=io
T 1645 1595 9 10 1 1 0 7 1
pinlabel=46
T 4500 5400 5 10 0 0 0 0 1
pinnumber=D46
T 4500 5800 5 10 0 0 0 0 1
pinseq=68
}
P 2000 1400 1700 1400 1 0 0
{
T 4500 5000 5 10 0 0 0 0 1
pintype=io
T 1645 1395 9 10 1 1 0 7 1
pinlabel=47
T 4500 4800 5 10 0 0 0 0 1
pinnumber=D47
T 4500 5200 5 10 0 0 0 0 1
pinseq=69
}
P 2000 1200 1700 1200 1 0 0
{
T 4500 4400 5 10 0 0 0 0 1
pintype=io
T 1645 1195 9 10 1 1 0 7 1
pinlabel=48
T 4500 4200 5 10 0 0 0 0 1
pinnumber=D48
T 4500 4600 5 10 0 0 0 0 1
pinseq=70
}
P 2000 1000 1700 1000 1 0 0
{
T 4500 3800 5 10 0 0 0 0 1
pintype=io
T 1645 995 9 10 1 1 0 7 1
pinlabel=49
T 4500 3600 5 10 0 0 0 0 1
pinnumber=D49
T 4500 4000 5 10 0 0 0 0 1
pinseq=71
}
P 2000 800 1700 800 1 0 0
{
T 4500 3200 5 10 0 0 0 0 1
pintype=io
T 1645 795 9 10 1 1 0 7 1
pinlabel=50
T 4500 3000 5 10 0 0 0 0 1
pinnumber=D50
T 4500 3400 5 10 0 0 0 0 1
pinseq=72
}
P 2000 600 1700 600 1 0 0
{
T 4500 2600 5 10 0 0 0 0 1
pintype=io
T 1645 595 9 10 1 1 0 7 1
pinlabel=51
T 4500 2400 5 10 0 0 0 0 1
pinnumber=D51
T 4500 2800 5 10 0 0 0 0 1
pinseq=73
}
P 2000 400 1700 400 1 0 0
{
T 4500 2000 5 10 0 0 0 0 1
pintype=io
T 1645 395 9 10 1 1 0 7 1
pinlabel=52
T 4500 1800 5 10 0 0 0 0 1
pinnumber=D52
T 4500 2200 5 10 0 0 0 0 1
pinseq=74
}
P 2000 200 1700 200 1 0 0
{
T 4500 1400 5 10 0 0 0 0 1
pintype=io
T 1645 195 9 10 1 1 0 7 1
pinlabel=53
T 4500 1200 5 10 0 0 0 0 1
pinnumber=D53
T 4500 1600 5 10 0 0 0 0 1
pinseq=75
}
T -1800 13000 8 10 0 0 0 0 1
device=due
T -1800 12800 8 10 0 0 0 0 1
description=arduino due board
T -1800 12600 8 10 0 0 0 0 1
symversion=1.0
T -1800 12400 8 10 0 0 0 0 1
author=Raphael Gosselin raphgoss69ATgmail.com
T -1800 12200 8 10 0 0 0 0 1
dist-license=GPLv3
T -1800 12000 8 10 0 0 0 0 1
numslots=0
T -1800 11800 8 10 0 0 0 0 1
footprint=none
