v 20191008 2
P 200 0 200 200 1 0 0
{
T 1500 1200 5 10 0 0 0 0 1
pintype=pwr
T 200 500 9 10 1 1 90 1 1
pinlabel=vs
T 200 300 5 10 1 1 0 3 1
pinnumber=1
T 1500 1400 5 10 0 0 0 0 1
pinseq=1
}
P 500 0 500 200 1 0 0
{
T 1500 800 5 10 0 0 0 0 1
pintype=io
T 500 500 9 10 1 1 90 1 1
pinlabel=data
T 500 300 5 10 1 1 0 3 1
pinnumber=2
T 1500 1000 5 10 0 0 0 0 1
pinseq=2
}
P 800 0 800 200 1 0 0
{
T 1500 400 5 10 0 0 0 0 1
pintype=pwr
T 800 500 9 10 1 1 90 1 1
pinlabel=gnd
T 800 300 5 10 1 1 0 3 1
pinnumber=3
T 1500 600 5 10 0 0 0 0 1
pinseq=3
}
P 1100 0 1100 200 1 0 0
{
T 1500 0 5 10 0 0 0 0 1
pintype=pwr
T 1100 500 9 10 1 1 90 1 1
pinlabel=gnd
T 1100 300 5 10 1 1 0 3 1
pinnumber=4
T 1500 200 5 10 0 0 0 0 1
pinseq=4
}
B 100 200 1100 1200 3 0 0 0 -1 -1 0 -1 -1 -1 -1 -1
T 300 1000 9 10 1 0 0 0 1
am2302
T 600 1200 8 10 1 1 0 3 1
refdes=U?
T 0 -400 8 10 0 0 0 0 1
device=am2302
T 0 -600 8 10 0 0 0 0 1
description=temperature and humidity sensor
T 0 -800 8 10 0 0 0 0 1
symversion=1.0
T 0 -1000 8 10 0 0 0 0 1
author=Raphael Gosselin raphgoss69ATgmail.com
T 0 -1200 8 10 0 0 0 0 1
dist-license=GPLv3
T 0 -1600 8 10 0 0 0 0 1
numslots=0
T 0 -1400 8 10 0 0 0 0 1
footprint=none
